…
```
## # A data stack with 2 model definitions and 31 candidate members:
## #   knn_res: 4 model configurations
## #   log_reg_res: 27 model configurations
## # Outcome: binary (factor)
```


```r
as_tibble(bechdel_stacks)
```

```
## # A tibble: 1,194 x 63
##    binary .pred_FAIL_knn_r… .pred_FAIL_knn_r… .pred_FAIL_knn_r… .pred_FAIL_knn_…
##    <fct>              <dbl>             <dbl>             <dbl>            <dbl>
##  1 PASS               0                0.0461             0.135            0.171
##  2 FAIL               1                1                  1                1    
##  3 FAIL               1                1                  1                1    
##  4 FAIL               1                1                  1                1    
##  5 FAIL               1                1                  1                1    
##  6 PASS               0                0.136              0.221            0.268
##  7 FAIL               1                1                  0.962            0.945
##  8 FAIL               1                0.919              0.897            0.879
##  9 FAIL               1                1                  1                1    
## 10 FAIL               0.197            0.664              0.750            0.785
## # … with 1,184 more rows, and 58 more variables: .pred_PASS_knn_res_1_1 <dbl>,
## #   .pred_PASS_knn_res_1_2 <dbl>, .pred_PASS_knn_res_1_3 <dbl>,
## #   .pred_PASS_knn_res_1_4 <dbl>, .pred_FAIL_log_reg_res_1_01 <dbl>,
## #   .pred_FAIL_log_reg_res_1_05 <dbl>, .pred_FAIL_log_reg_res_1_06 <dbl>,
## #   .pred_FAIL_log_reg_res_1_07 <dbl>, .pred_FAIL_log_reg_res_1_08 <dbl>,
## #   .pred_FAIL_log_reg_res_1_09 <dbl>, .pred_FAIL_log_reg_res_1_10 <dbl>,
## #   .pred_FAIL_log_reg_res_1_11 <dbl>, .pred_FAIL_log_reg_res_1_12 <dbl>,
## #   .pred_FAIL_log_reg_res_1_13 <dbl>, .pred_FAIL_log_reg_res_1_14 <dbl>,
## #   .pred_FAIL_log_reg_res_1_15 <dbl>, .pred_FAIL_log_reg_res_1_16 <dbl>,
…
```r
bechdel_stacks_model <- bechdel_stacks_model %>% 
  fit_members()
```



```r
collect_parameters(bechdel_stacks_model, "log_reg_res")
```

```
## # A tibble: 30 x 3
##    member            penalty  coef
##    <chr>               <dbl> <dbl>
##  1 log_reg_res_1_01 0.0001      NA
##  2 log_reg_res_1_02 0.000127    NA
##  3 log_reg_res_1_03 0.000161    NA
##  4 log_reg_res_1_04 0.000204    NA
##  5 log_reg_res_1_05 0.000259    NA
##  6 log_reg_res_1_06 0.000329    NA
##  7 log_reg_res_1_07 0.000418    NA
##  8 log_reg_res_1_08 0.000530    NA
##  9 log_reg_res_1_09 0.000672    NA
## 10 log_reg_res_1_10 0.000853    NA
## # … with 20 more rows
```
…
